----------------------------------------------------------------
Fri Mar 29 14:22:26 EET 2019:
Booting Derby version The Apache Software Foundation - Apache Derby - 10.8.2.2 - (1181258): instance a816c00e-0169-c966-b6a0-0000056b7110 
on database directory C:\sql\demo  with class loader jdk.internal.loader.ClassLoaders$AppClassLoader@6ed3ef1 
Loaded from file:/C:/Users/thomas/.m2/repository/org/apache/derby/derby/10.8.2.2/derby-10.8.2.2.jar
java.vendor=Oracle Corporation
java.runtime.version=11.0.2+9-LTS
user.dir=C:\Users\thomas\Downloads\panos\java-training_new\test4
derby.system.home=null
Database Class Loader started - derby.database.classpath=''
